…
Most Expensive Seats on Average  
```  
FROM GRAPH_TABLE (  
  flight_graph   
  MATCH (b:bookings)-[bt:bookings_tickets]->(t:tickets)-[bp:boarding_passes]->(s:seats)  
)  
SELECT round(avg(total_amount), 2) avg_amount, seat_no   
GROUP BY seat_no   
ORDER BY avg_amount DESC;  
```  
  
```  
┌────────────┬─────────┐  
│ avg_amount │ seat_no │  
│   double   │ varchar │  
├────────────┼─────────┤  
│  165002.34 │ 5H      │  
│  162638.52 │ 3H      │  
│  161094.62 │ 1H      │  
│  159982.75 │ 2H      │  
│  159357.03 │ 4H      │  
│  157285.04 │ 5G      │  
│  156692.37 │ 4G      │  
│  153729.37 │ 1G      │  
│  151677.06 │ 2G      │  
│  150673.17 │ 3G      │  
│  137574.63 │ 4K      │  
│  131681.02 │ 24B     │  
│  131023.19 │ 2F      │  
│  130373.44 │ 1F      │  
│  129315.14 │ 38D     │  
│  129178.79 │ 3F      │  
│  128531.07 │ 2K      │  
│  127953.63 │ 15G     │  
│  127886.73 │ 5K      │  
│  127745.15 │ 3K      │  
│       ·    │ ·       │  
│       ·    │ ·       │  
│       ·    │ ·       │  
│   87545.89 │ 44H     │  
│   87502.67 │ 7B      │  
│   87414.22 │ 51D     │  
│   87117.02 │ 40A     │  
│   87025.12 │ 43A     │  
│   86942.65 │ 47C     │  
│   86872.91 │ 43F     │  
│   86686.42 │ 4B      │  
│   86658.08 │ 45F     │  
│    86603.0 │ 39J     │  
│   86315.35 │ 41D     │  
│   86232.64 │ 4E      │  
│   85916.28 │ 45A     │  
│    85891.1 │ 22C     │  
│   85413.07 │ 39G     │  
│   85194.06 │ 36K     │  
│   85015.46 │ 49H     │  
│   85012.69 │ 6B      │  
│   84873.21 │ 42F     │  
│    83132.0 │ 26J     │  
├────────────┴─────────┤  
│ 461 rows (40 shown)  │  
└──────────────────────┘  
```  
…
Filter high-value transfers by time  
```  
FROM GRAPH_TABLE (  
  finbench   
  MATCH (src:Account)-[e:Transfer]->(dst:Account)   
  WHERE '2022-07-13 09:18:33.137' < e.createtime   
    AND e.createtime < '2022-09-03 02:31:47.812'   
    AND e.amount > 4829783  
  );  
```  
  
```  
┌─────────────────────┬────────────────┬──────────────────────┬──────────────────────┬────────────────┬───┬─────────────┬─────────────────┬──────────────────┬────────────┐  
│      accountId      │  accountLevel  │      accoutType      │      createTime      │     email      │ … │ isBlocked_1 │ lastLoginTime_1 │    nickname_1    │ phonenum_1 │  
│        int64        │    varchar     │       varchar        │      timestamp       │    varchar     │   │   boolean   │      int64      │     varchar      │  varchar   │  
├─────────────────────┼────────────────┼──────────────────────┼──────────────────────┼────────────────┼───┼─────────────┼─────────────────┼──────────────────┼────────────┤  
│ 4871487421931323467 │ Silver level   │ foreign currency     │ 2022-07-13 16:39:2…  │ gmail.com      │ … │ false       │   1607559769318 │ Von Kwiecinski   │ 093-2605   │  
│ 4859946947886188028 │ Elite level    │ trust account        │ 2022-06-02 06:31:1…  │ hotmail.com    │ … │ false       │   1637915991894 │ Quincy Palevic   │ 993-7856   │  
│ 4874865121651852757 │ Silver level   │ foreign currency     │ 2022-07-25 06:32:1…  │ yahoo.com      │ … │ false       │   1707138596631 │ Randolph Gica    │ 019-6516   │  
│  224617031415104267 │ Basic level    │ debit card           │ 2022-03-10 08:16:0…  │ gmail.com      │ … │ false       │   1821244840150 │ Mee Litehiser    │ 634-7538   │  
│ 4868391197187506662 │ Basic level    │ merchant account     │ 2022-07-02 16:29:3…  │ gmail.com      │ … │ false       │   1870998197095 │ Laverna Model    │ 817-9166   │  
│ 4865576447420401096 │ Platinum level │ custodial account    │ 2022-06-22 14:50:4…  │ yahoo.com      │ … │ false       │   1645937738814 │ Paula Kreiman    │ 058-9085   │  
│  260927303410778194 │ Basic level    │ trust account        │ 2022-07-17 03:12:4…  │ gmail.com      │ … │ false       │   1701567052278 │ Eve Pusateri     │ 185-5297   │  
│ 4877679871418958311 │ Silver level   │ trust account        │ 2022-08-04 06:58:3…  │ gmx.com        │ … │ false       │   1858743258786 │ Mimi Voelkel     │ 392-1577   │  
│ 4840525174493152518 │ Silver level   │ escrow account       │ 2022-03-25 10:44:1…  │ gmail.com      │ … │ false       │   1854023613134 │ Mohammad Creitz  │ 074-0610   │  
│ 4881057571139487097 │ Silver level   │ debit card           │ 2022-08-16 03:31:0…  │ gmail.com      │ … │ false       │   1816448033193 │ Leo Astudillo    │ 064-0237   │  
│ 4850376798678024353 │ Basic level    │ brokerage account    │ 2022-04-28 20:49:5…  │ yahoo.com      │ … │ false       │   1677236764209 │ Rogelio Thaut    │ 713-2481   │  
│ 4807311127241295552 │ Basic level    │ retirement account   │ 2021-11-27 09:11:2…  │ gmx.com        │ … │ false       │   1869571881089 │ Jimmie Poldrack  │ 881-3626   │  
│ 4803651952544055659 │ Gold level     │ credit card          │ 2021-11-14 08:28:0…  │ gmail.com      │ … │ false       │   1705349033849 │ Theresia Wight   │ 788-0613   │  
│ 4821947826030247975 │ Silver level   │ prepaid card         │ 2022-01-18 07:18:4…  │ gmail.com      │ … │ false       │   1779950672568 │ Crissy Rehmann   │ 839-8629   │  
│ 4852347123515000212 │ Basic level    │ foreign currency     │ 2022-05-06 05:30:5…  │ gmx.com        │ … │ false       │   1848972719586 │ Alesia Dragovich │ 205-0421   │  
│ 4868391197187506662 │ Basic level    │ merchant account     │ 2022-07-02 16:29:3…  │ gmail.com      │ … │ false       │   1884801105807 │ Andre Craigwell  │ 148-1591   │  
│ 4835177149935649794 │ Basic level    │ brokerage account    │ 2022-03-06 07:45:3…  │ zoho.com       │ … │ false       │   1666407376558 │ Karie Naji       │ 930-3471   │  
│ 4865576447420401096 │ Platinum level │ custodial account    │ 2022-06-22 14:50:4…  │ yahoo.com      │ … │ false       │   1684982774740 │ Stephan Esqueda  │ 582-2215   │  
│  215609832160363230 │ Basic level    │ merchant account     │ 2022-02-06 16:22:5…  │ gmail.com      │ … │ false       │   1660006878289 │ Jacob Sheild     │ 473-0001   │  
│  181269885001663159 │ Basic level    │ debit card           │ 2021-10-06 17:19:0…  │ hotmail.com    │ … │ false       │   1764480655226 │ Damian Warsing   │ 787-9979   │  
│           ·         │      ·         │     ·                │          ·           │     ·          │ · │   ·         │         ·       │       ·          │    ·       │  
│           ·         │      ·         │     ·                │          ·           │     ·          │ · │   ·         │         ·       │       ·          │    ·       │  
│           ·         │      ·         │     ·                │          ·           │     ·          │ · │   ·         │         ·       │       ·          │    ·       │  
│   99079191802151398 │ Basic level    │ merchant account     │ 2020-12-18 13:42:5…  │ gmail.com      │ … │ false       │   1796558405647 │ Mervin Scammon   │ 811-6740   │  
│   41939771529888100 │ Platinum level │ certificate of dep…  │ 2020-05-29 11:12:3…  │ gmail.com      │ … │ false       │   1796558405647 │ Mervin Scammon   │ 811-6740   │  
│  165788761282576994 │ Basic level    │ retirement account   │ 2021-08-12 13:34:2…  │ hotmail.com    │ … │ false       │   1796558405647 │ Mervin Scammon   │ 811-6740   │  
│  151152062493622619 │ Elite level    │ escrow account       │ 2021-06-22 02:48:3…  │ gmail.com      │ … │ false       │   1796558405647 │ Mervin Scammon   │ 811-6740   │  
│  131448814123876944 │ Basic level    │ trust account        │ 2021-04-13 01:47:5…  │ gmx.com        │ … │ false       │   1796558405647 │ Mervin Scammon   │ 811-6740   │  
│  229402106019184975 │ Basic level    │ merchant account     │ 2022-03-26 22:11:3…  │ gmail.com      │ … │ false       │   1796558405647 │ Mervin Scammon   │ 811-6740   │  
│  237846355320504906 │ Basic level    │ prepaid card         │ 2022-04-26 07:31:2…  │ hotmail.com    │ … │ false       │   1796558405647 │ Mervin Scammon   │ 811-6740   │  
│  261771728340910437 │ Basic level    │ debit card           │ 2022-07-20 05:06:1…  │ gmx.com        │ … │ false       │   1796558405647 │ Mervin Scammon   │ 811-6740   │  
│   84161018036486476 │ Platinum level │ corporate account    │ 2020-10-26 14:33:2…  │ yemeni.cc      │ … │ false       │   1796558405647 │ Mervin Scammon   │ 811-6740   │  
│   99079191802151398 │ Basic level    │ merchant account     │ 2020-12-18 13:42:5…  │ gmail.com      │ … │ false       │   1796558405647 │ Mervin Scammon   │ 811-6740   │  
│  256423703783408196 │ Basic level    │ internet account     │ 2022-06-30 20:58:4…  │ gmx.com        │ … │ false       │   1796558405647 │ Mervin Scammon   │ 811-6740   │  
│   90353467524121172 │ Silver level   │ escrow account       │ 2020-11-17 12:01:1…  │ hotmail.com    │ … │ false       │   1796558405647 │ Mervin Scammon   │ 811-6740   │  
│  224617031415104066 │ Silver level   │ certificate of dep…  │ 2022-03-10 06:36:0…  │ gmail.com      │ … │ false       │   1796558405647 │ Mervin Scammon   │ 811-6740   │  
│  163536961468891568 │ Basic level    │ merchant account     │ 2021-08-05 05:40:2…  │ programmer.net │ … │ false       │   1796558405647 │ Mervin Scammon   │ 811-6740   │  
│   63894819713319622 │ Basic level    │ foreign currency     │ 2020-08-15 08:39:4…  │ hotmail.com    │ … │ false       │   1796558405647 │ Mervin Scammon   │ 811-6740   │  
│  131448814123876944 │ Basic level    │ trust account        │ 2021-04-13 01:47:5…  │ gmx.com        │ … │ false       │   1796558405647 │ Mervin Scammon   │ 811-6740   │  
│  233061280716423788 │ Platinum level │ brokerage account    │ 2022-04-09 04:40:5…  │ zoho.com       │ … │ false       │   1796558405647 │ Mervin Scammon   │ 811-6740   │  
│  172825635700343512 │ Basic level    │ credit card          │ 2021-09-07 10:17:5…  │ gmx.com        │ … │ false       │   1796558405647 │ Mervin Scammon   │ 811-6740   │  
│  162129586585338190 │ Basic level    │ prepaid card         │ 2021-07-31 09:30:4…  │ gmail.com      │ … │ false       │   1796558405647 │ Mervin Scammon   │ 811-6740   │  
│  172825635700343512 │ Basic level    │ credit card          │ 2021-09-07 10:17:5…  │ gmx.com        │ … │ false       │   1796558405647 │ Mervin Scammon   │ 811-6740   │  
├─────────────────────┴────────────────┴──────────────────────┴──────────────────────┴────────────────┴───┴─────────────┴─────────────────┴──────────────────┴────────────┤  
│ 638 rows (40 shown)                                                                                                                                28 columns (9 shown) │  
└─────────────────────────────────────────────────────────────────────────────────────────────────────────────────────────────────────────────────────────────────────────┘  
```  
…
Local Clustering Coefficient  
```  
SELECT *   
FROM local_clustering_coefficient(<property graph>, <vertex label>, <edge label>);  
  
SELECT *   
FROM local_clustering_coefficient(snb, Person, Knows);  
  
┌────────────────┬──────────────────────────────┐  
│       id       │ local_clustering_coefficient │  
│     int64      │            float             │  
├────────────────┼──────────────────────────────┤  
│             14 │                   0.33333334 │  
│             16 │                          0.5 │  
│             32 │                    0.8333333 │  
│  2199023255557 │                    0.6666667 │  
│  2199023255573 │                          1.0 │  
│  2199023255594 │                    0.1904762 │  
│  4398046511139 │                          0.0 │  
│  6597069766702 │                          0.0 │  
│  8796093022234 │                          0.0 │  
│  8796093022237 │                    0.6666667 │  
│  8796093022244 │                          0.0 │  
│  8796093022249 │                          0.4 │  
│ 10995116277761 │                          0.3 │  
│ 10995116277782 │                   0.23809524 │  
│ 10995116277783 │                          0.0 │  
│ 10995116277808 │                          0.0 │  
│ 13194139533342 │                          1.0 │  
│ 13194139533352 │                   0.31111112 │  
│ 13194139533355 │                          0.2 │  
│ 15393162788877 │                          0.0 │  
│        ·       │                           ·  │  
│        ·       │                           ·  │  
│        ·       │                           ·  │  
│ 26388279066655 │                   0.33333334 │  
│ 26388279066658 │                   0.21794872 │  
│ 26388279066668 │                          0.5 │  
│ 28587302322180 │                   0.16666667 │  
│ 28587302322191 │                          0.0 │  
│ 28587302322196 │                    0.8333333 │  
│ 28587302322204 │                    0.2857143 │  
│ 28587302322209 │                          0.0 │  
│ 28587302322223 │                          0.0 │  
│ 30786325577731 │                          0.0 │  
│ 30786325577740 │                          1.0 │  
│ 32985348833291 │                          0.0 │  
│ 32985348833318 │                          0.0 │  
│ 32985348833329 │                          0.0 │  
│ 35184372088834 │                          0.0 │  
│ 35184372088850 │                    0.6666667 │  
│ 35184372088856 │                   0.33333334 │  
│ 35184372088871 │                          0.0 │  
│ 37383395344394 │                          0.0 │  
│ 37383395344409 │                          0.0 │  
├────────────────┴──────────────────────────────┤  
│ 50 rows (40 shown)                  2 columns │  
└───────────────────────────────────────────────┘  
```  
  
Weakly Connected Component  
```  
SELECT *  
FROM weakly_connected_component(<property graph>, <vertex label>, <edge label>);  
  
SELECT *  
FROM weakly_connected_component(snb, Person, Knows);  
  
┌────────────────┬─────────────┐  
│       id       │ componentId │  
│     int64      │    int64    │  
├────────────────┼─────────────┤  
│             14 │          39 │  
│             16 │          39 │  
│             32 │          39 │  
│  2199023255557 │          39 │  
│  2199023255573 │          39 │  
│  2199023255594 │          39 │  
│  4398046511139 │           6 │  
│  6597069766702 │          39 │  
│  8796093022234 │           8 │  
│  8796093022237 │          39 │  
│  8796093022244 │          39 │  
│  8796093022249 │          39 │  
│ 10995116277761 │          39 │  
│ 10995116277782 │          39 │  
│ 10995116277783 │          14 │  
│ 10995116277808 │          15 │  
│ 13194139533342 │          39 │  
│ 13194139533352 │          39 │  
│ 13194139533355 │          39 │  
│ 15393162788877 │          39 │  
│        ·       │           · │  
│        ·       │           · │  
│        ·       │           · │  
│ 26388279066655 │          39 │  
│ 26388279066658 │          39 │  
│ 26388279066668 │          39 │  
│ 28587302322180 │          39 │  
│ 28587302322191 │          39 │  
│ 28587302322196 │          39 │  
│ 28587302322204 │          39 │  
│ 28587302322209 │          37 │  
│ 28587302322223 │          39 │  
│ 30786325577731 │          39 │  
│ 30786325577740 │          39 │  
│ 32985348833291 │          41 │  
│ 32985348833318 │          42 │  
│ 32985348833329 │          39 │  
│ 35184372088834 │          39 │  
│ 35184372088850 │          39 │  
│ 35184372088856 │          39 │  
│ 35184372088871 │          47 │  
│ 37383395344394 │          48 │  
│ 37383395344409 │          49 │  
├────────────────┴─────────────┤  
│      50 rows (40 shown)      │  
└──────────────────────────────┘  
```  
  
PageRank  
```  
SELECT *  
FROM pagerank(<property graph>, <vertex label>, <edge label>);  
  
┌────────────────┬──────────────────────┐  
│       id       │       pagerank       │  
│     int64      │        double        │  
├────────────────┼──────────────────────┤  
│             14 │ 0.010160948892729645 │  
│             16 │ 0.010160948892729645 │  
│             32 │ 0.010160948892729645 │  
│  2199023255557 │ 0.010160948892729645 │  
│  2199023255573 │ 0.010160948892729645 │  
│  2199023255594 │ 0.014479362809180427 │  
│  4398046511139 │ 0.010160948892729645 │  
│  6597069766702 │ 0.010160948892729645 │  
│  8796093022234 │ 0.010160948892729645 │  
│  8796093022237 │ 0.013039891503696832 │  
│  8796093022244 │ 0.011107680480004004 │  
│  8796093022249 │ 0.010160948892729645 │  
│ 10995116277761 │ 0.011107680480004004 │  
│ 10995116277782 │ 0.014767257070277144 │  
│ 10995116277783 │ 0.010160948892729645 │  
│ 10995116277808 │ 0.010160948892729645 │  
│ 13194139533342 │ 0.011107680480004004 │  
│ 13194139533352 │ 0.015627275199203507 │  
│ 13194139533355 │ 0.028527222030624376 │  
│ 15393162788877 │ 0.011107680480004004 │  
│        ·       │           ·          │  
│        ·       │           ·          │  
│        ·       │           ·          │  
│ 26388279066655 │ 0.014680543611929147 │  
│ 26388279066658 │  0.05141757730669825 │  
│ 26388279066668 │  0.02372779009907439 │  
│ 28587302322180 │  0.06681388098901132 │  
│ 28587302322191 │ 0.010160948892729645 │  
│ 28587302322196 │  0.03367268951085164 │  
│ 28587302322204 │  0.05583904542516861 │  
│ 28587302322209 │ 0.010160948892729645 │  
│ 28587302322223 │ 0.024358861941305765 │  
│ 30786325577731 │ 0.024358861941305765 │  
│ 30786325577740 │ 0.022033917811836636 │  
│ 32985348833291 │ 0.010160948892729645 │  
│ 32985348833318 │ 0.010160948892729645 │  
│ 32985348833329 │  0.03648299553611766 │  
│ 35184372088834 │ 0.019902115900832847 │  
│ 35184372088850 │  0.07139459174390198 │  
│ 35184372088856 │  0.03223445862173271 │  
│ 35184372088871 │ 0.010160948892729645 │  
│ 37383395344394 │ 0.010160948892729645 │  
│ 37383395344409 │ 0.010160948892729645 │  
├────────────────┴──────────────────────┤  
│ 50 rows (40 shown)          2 columns │  
└───────────────────────────────────────┘  
```  
…
