…
类似划好格子, 把记录放进对应格子, 一条数据不能跨格子存在.    
  
实现滚动窗口的一种方法是使用date_trunc函数，它将时间戳截断到指定的精度。例如，在下面的代码中，我们检索了 `2024 年每天每小时` 的服务数量：  
```  
SELECT  
    date_trunc('hour', station_service_time) AS window_start,  
    window_start + INTERVAL 1 HOUR AS window_end,  
    count(*) AS number_of_services  
FROM ams_traffic_v  
WHERE year(station_service_time) = 2024  
GROUP BY ALL  
ORDER BY 1;  
  
┌─────────────────────┬─────────────────────┬────────────────────┐  
│    window_start     │     window_end      │ number_of_services │  
│      timestamp      │      timestamp      │       int64        │  
├─────────────────────┼─────────────────────┼────────────────────┤  
│ 2024-01-01 01:00:00 │ 2024-01-01 02:00:00 │                  2 │  
│ 2024-01-01 02:00:00 │ 2024-01-01 03:00:00 │                  3 │  
│ 2024-01-01 03:00:00 │ 2024-01-01 04:00:00 │                  4 │  
│          ·          │          ·          │                  · │  
│          ·          │          ·          │                  · │  
│          ·          │          ·          │                  · │  
│ 2024-12-31 20:00:00 │ 2024-12-31 21:00:00 │                  9 │  
│ 2024-12-31 21:00:00 │ 2024-12-31 22:00:00 │                  1 │  
│ 2024-12-31 23:00:00 │ 2025-01-01 00:00:00 │                  2 │  
├─────────────────────┴─────────────────────┴────────────────────┤  
│ 8781 rows (6 shown)                                  3 columns │  
└────────────────────────────────────────────────────────────────┘  
```  
…
```  
SELECT  
    time_bucket(  
        INTERVAL 15 MINUTE, -- bucket width  
        station_service_time,  
        INTERVAL 0 MINUTE -- offset  
    ) AS window_start,  -- 该函数构造出bucket, 并根据字段值放入对应bucket内, 返回bucket的开始值.    
    window_start + INTERVAL 15 MINUTE as window_end,  
    count(*) AS number_of_services  
FROM ams_traffic_v  
WHERE year(station_service_time) = 2024  
GROUP BY ALL  
ORDER BY 1;  
  
┌─────────────────────┬─────────────────────┬────────────────────┐  
│    window_start     │     window_end      │ number_of_services │  
│      timestamp      │      timestamp      │       int64        │  
├─────────────────────┼─────────────────────┼────────────────────┤  
│ 2024-01-01 01:30:00 │ 2024-01-01 01:45:00 │                  1 │  
│ 2024-01-01 01:45:00 │ 2024-01-01 02:00:00 │                  1 │  
│ 2024-01-01 02:15:00 │ 2024-01-01 02:30:00 │                  2 │  
│          ·          │          ·          │                  · │  
│          ·          │          ·          │                  · │  
│          ·          │          ·          │                  · │  
│ 2024-12-31 20:45:00 │ 2024-12-31 21:00:00 │                  2 │  
│ 2024-12-31 21:00:00 │ 2024-12-31 21:15:00 │                  1 │  
│ 2024-12-31 23:45:00 │ 2025-01-01 00:00:00 │                  2 │  
├─────────────────────┴─────────────────────┴────────────────────┤  
│ 32932 rows (6 shown)                                 3 columns │  
└────────────────────────────────────────────────────────────────┘  
```  
…
跳跃窗口的一个用例是确定 2024 年内最繁忙的五个 15 分钟时段（窗口大小），每 5 分钟（跳跃大小）开始一次。我们首先为所有感兴趣的日期生成人工跳跃窗口：  
```  
WITH time_range AS (  
    SELECT  
        range AS window_start,  
        window_start + INTERVAL 15 MINUTE AS window_end  
    FROM range(  
        '2024-01-01 00:00:00'::TIMESTAMP,  
        '2025-01-01 00:00:00'::TIMESTAMP,  
        INTERVAL 5 MINUTE -- hopping size  
    )  
)  
  
┌─────────────────────┬─────────────────────┐  
│    window_start     │     window_end      │  
│      timestamp      │      timestamp      │  
├─────────────────────┼─────────────────────┤  
│ 2024-01-01 00:00:00 │ 2024-01-01 00:15:00 │  
│ 2024-01-01 00:05:00 │ 2024-01-01 00:20:00 │  
│ 2024-01-01 00:10:00 │ 2024-01-01 00:25:00 │  
│          ·          │          ·          │  
│          ·          │          ·          │  
│          ·          │          ·          │  
│ 2024-12-31 23:45:00 │ 2025-01-01 00:00:00 │  
│ 2024-12-31 23:50:00 │ 2025-01-01 00:05:00 │  
│ 2024-12-31 23:55:00 │ 2025-01-01 00:10:00 │  
├─────────────────────┴─────────────────────┤  
│ 105408 rows (6 shown)           2 columns │  
└───────────────────────────────────────────┘  
```  
…
在上面的查询中，我们还计算了当前服务与上一次服务之间的间隔（以分钟为单位），其中date_diff。如果没有上一次服务，则该列将为NULL，表示当天的第一次服务会话：  
```  
┌──────────────────────┬───────────────────────┬─────────────┐  
│ station_service_time │ previous_service_time │ gap_minutes │  
│      timestamp       │       timestamp       │    int64    │  
├──────────────────────┼───────────────────────┼─────────────┤  
│ 2024-01-09 06:00:00  │ NULL                  │        NULL │  
│ 2024-01-16 06:00:00  │ NULL                  │        NULL │  
│ 2024-01-22 06:00:00  │ NULL                  │        NULL │  
│          ·           │  ·                    │          ·  │  
│          ·           │  ·                    │          ·  │  
│          ·           │  ·                    │          ·  │  
│ 2024-11-28 06:01:00  │ NULL                  │        NULL │  
│ 2024-12-05 06:01:00  │ NULL                  │        NULL │  
│ 2024-12-23 06:00:00  │ NULL                  │        NULL │  
├──────────────────────┴───────────────────────┴─────────────┤  
│ 366 rows (6 shown)                               3 columns │  
└────────────────────────────────────────────────────────────┘  
```  
…
